<?xml version="1.0" encoding="UTF-8"?>
<svg width="64px" height="64px" viewBox="0 0 64 64" version="1.1" xmlns="http://www.w3.org/2000/svg" xmlns:xlink="http://www.w3.org/1999/xlink">
    <!-- Generator: Sketch 53 (72520) - https://sketchapp.com -->
    <title>Icon/filledt/triangle/triangle_green</title>
    <desc>Created with Sketch.</desc>
    <g id="Icon/filledt/triangle/triangle_green" stroke="none" stroke-width="1" fill="none" fill-rule="evenodd">
        <g id="Triangle-2" transform="translate(32.000000, 31.818182) scale(1, -1) translate(-32.000000, -31.818182) translate(4.000000, 8.818182)" fill="#719E19">
            <polygon id="Triangle" transform="translate(28.000000, 22.909091) scale(1, -1) translate(-28.000000, -22.909091) " points="28 0 56 45.8181818 0 45.8181818"></polygon>
        </g>
    </g>
</svg>