<?xml version="1.0" encoding="UTF-8"?>
<svg width="64px" height="64px" viewBox="0 0 64 64" version="1.1" xmlns="http://www.w3.org/2000/svg" xmlns:xlink="http://www.w3.org/1999/xlink">
    <!-- Generator: Sketch 53 (72520) - https://sketchapp.com -->
    <title>Icon/Outline 1pt/minus/minus_consumer</title>
    <desc>Created with Sketch.</desc>
    <g id="Icon/Outline-1pt/minus/minus_consumer" stroke="none" stroke-width="1" fill="none" fill-rule="evenodd" stroke-linecap="round" stroke-linejoin="round">
        <path d="M4,32 L60,32" id="Line" stroke="#719E19"></path>
    </g>
</svg>